@startuml
object Language {
  id: bigInt
  name: string
  slug: string
}
object User {
  id: bigInt
  name: string
  email: string
  password: string
  resetToken: string
  created_at: datetime
  updated_at: datetime
}
object Zone {
  id: bigInt
  code: string
  latitude: float (nullable)
  longitude: float (nullable)
  prevZoneId: bigInt (nullable)
  nextZoneId: bigInt (nullable)
  userId: bigInt
  created_at: datetime
  updated_at: datetime
}
object ZoneTranslations {
  zoneId: bigInt
  languageId: bigInt
  name: string
  description: string
  funFacts: string
  created_at: datetime
  updated_at: datetime
}

Zone "1" o-- "n" ZoneTranslations 
Zone "n" o-- "1" User 
ZoneTranslations "N" o-- "1" Language

object Life {
  id: bigInt
  scientific: string
  code: string
  locationsId: bigInt (nullable) | Map of world locations
  group: string (fauna || flora)
  userId: bigInt
  created_at: datetime
  updated_at: datetime
}
object LifeTranslations {
  lifeId: bigInt
  languageId: bigInt
  name: string
  description: string
  funFacts: string
  habitat: string
  created_at: datetime
  updated_at: datetime
}

Life "1" o-- "n" LifeTranslations 
Life "n" o-- "1" User 
LifeTranslations "N" o-- "1" Language

object LifeZone {
  zoneId: bigInt
  lifeId: bigInt
  probability: int
  imageId: bitInt (nullable)
  created_at: datetime
  updated_at: datetime
}

Life "n" o-- "1" LifeZone
Zone "n" o-- "1" LifeZone
ImageLife "1" o-- "1" LifeZone

object ImageZone {
  id: bigInt
  zoneId: bitInt
  path: string
  cover: boolean
  enable: boolean
  order: int
  userId: bigInt
  created_at: datetime
  updated_at: datetime
}

ImageZone "n" o-- "1" Zone
ImageZone "n" o-- "1" User

object ImageZoneTranlations {
  imageId: bigInt
  languageId: bigInt
  name: string
}

ImageZoneTranlations "n" o-- "1" ImageZone
ImageZoneTranlations "n" o-- "1" Language

object ImageLife {
  id: bigInt
  lifeId: bitInt
  path: string
  enable: boolean
  order: int
  userId: bigInt
  created_at: datetime
  updated_at: datetime
}

ImageLife "n" o-- "1" Life
ImageLife "n" o-- "1" User

object ImageLifeTranlations {
  imageId: bigInt
  languageId: bigInt
  name: string
}

ImageLifeTranlations "n" o-- "1" ImageLife
ImageLifeTranlations "n" o-- "1" Language

object Park {
  id: bigInt
}

object ParkTranslations {
  parkId: bitInt
  languageId: bigInt
  name: string;
  welcome: string;
}

Park "1" o-- "n" ParkTranslations
ParkTranslations "n" o-- "1" Language

@enduml
